<svg xmlns="http://www.w3.org/2000/svg" viewBox="0 0 28 28">
    <path d="M17.558 5.833a5.833 5.833 0 014.609 4.609l-4.609-4.609zm0-4.666a10.5 10.5 0 019.275 9.263l-9.275-9.263zm8.109 18.573v3.5a2.335 2.335 0 01-2.544 2.333 23.089 23.089 0 01-10.068-3.581 22.751 22.751 0 01-7-7A23.089 23.089 0 012.473 4.877a2.333 2.333 0 012.322-2.544h3.5a2.333 2.333 0 012.333 2.007c.148 1.12.422 2.22.817 3.278a2.333 2.333 0 01-.525 2.462l-1.482 1.482c1.661 2.92 4.08 5.339 7 7l1.482-1.482a2.333 2.333 0 012.462-.525c1.058.395 2.158.669 3.278.817a2.333 2.333 0 012.007 2.368z"
          fill="none" stroke="currentColor" stroke-width="2" stroke-linecap="round" stroke-linejoin="round"/>
</svg>
