<svg xmlns="http://www.w3.org/2000/svg" viewBox="0 0 8 8">
    <path d="M4 .5a3.5 3.5 0 100 7 3.5 3.5 0 000-7zm0 6.406a2.907 2.907 0 11.001-5.813A2.907 2.907 0 014 6.906z"
          fill="currentColor"/>
    <path d="M4.872 2.474A1.317 1.317 0 004 2.156c-.328 0-.638.114-.872.318-.244.213-.378.5-.378.807v.06c0 .034.028.062.063.062h.374a.063.063 0 00.063-.062v-.06c0-.344.337-.625.75-.625s.75.28.75.625c0 .243-.172.466-.438.568a.873.873 0 00-.563.827v.168c0 .034.028.062.063.062h.375a.063.063 0 00.062-.062v-.178a.377.377 0 01.242-.35c.46-.177.758-.583.758-1.035.001-.307-.133-.594-.377-.807zM3.688 5.72a.312.312 0 10.624 0 .312.312 0 00-.625 0z"
          fill="currentColor"/>
</svg>
